{
    "Recommender": "MaxValue",
    "BI": ["MaxValue", "MinTopEntropy", "Random"],
    "NumberOfQueries": 5,	
    "Samples": 5,       
    "Output": "housingNormalOutput.csv", 
    "Interaction": {
	"Type": "BatchExperiment",	
	"Generator": {
	    "Type": "Normal",
     	"Mean": [0.5, 0.5, 0.5, 0.5, 0.5, 0.5 ],
     	    "Cov": [[ 0.2, 0 , 0 , 0 , 0 , 0 ],
			        [ 0  ,0.2, 0 , 0 , 0 , 0 ],
					[ 0  , 0 ,0.2, 0 , 0 , 0 ],
                    [ 0  , 0 , 0 ,0.2, 0 , 0 ],
				    [ 0  , 0 , 0 , 0 ,0.2, 0 ],
					[ 0  , 0 , 0 , 0 , 0 ,0.2]]	
	},
	
	
	"Generator": {
	    "Type": "Uniform"
	},
	"NumberOfUsers" : 1000
    },
    "Prior" : {	
	"Type": "Uniform"
    }
}
