1, 0.00632, 18.00, 2.310, 0, 0.5380, 6.5750, 65.20, 4.0900, 1, 296.0, 15.30, 396.90, 4.98, 24.00
2, 0.02731, 0.00, 7.070, 0, 0.4690, 6.4210, 78.90, 4.9671, 2, 242.0, 17.80, 396.90, 9.14, 21.60
3, 0.02729, 0.00, 7.070, 0, 0.4690, 7.1850, 61.10, 4.9671, 2, 242.0, 17.80, 392.83, 4.03, 34.70
4, 0.03237, 0.00, 2.180, 0, 0.4580, 6.9980, 45.80, 6.0622, 3, 222.0, 18.70, 394.63, 2.94, 33.40
5, 0.06905, 0.00, 2.180, 0, 0.4580, 7.1470, 54.20, 6.0622, 3, 222.0, 18.70, 396.90, 5.33, 36.20
6, 0.02985, 0.00, 2.180, 0, 0.4580, 6.4300, 58.70, 6.0622, 3, 222.0, 18.70, 394.12, 5.21, 28.70
7, 0.08829, 12.50, 7.870, 0, 0.5240, 6.0120, 66.60, 5.5605, 5, 311.0, 15.20, 395.60, 12.43, 22.90
8, 0.14455, 12.50, 7.870, 0, 0.5240, 6.1720, 96.10, 5.9505, 5, 311.0, 15.20, 396.90, 19.15, 27.10
9, 0.21124, 12.50, 7.870, 0, 0.5240, 5.6310, 100.00, 6.0821, 5, 311.0, 15.20, 386.63, 29.93, 16.50
10, 0.17004, 12.50, 7.870, 0, 0.5240, 6.0040, 85.90, 6.5921, 5, 311.0, 15.20, 386.71, 17.10, 18.90
11, 0.22489, 12.50, 7.870, 0, 0.5240, 6.3770, 94.30, 6.3467, 5, 311.0, 15.20, 392.52, 20.45, 15.00
12, 0.11747, 12.50, 7.870, 0, 0.5240, 6.0090, 82.90, 6.2267, 5, 311.0, 15.20, 396.90, 13.27, 18.90
13, 0.09378, 12.50, 7.870, 0, 0.5240, 5.8890, 39.00, 5.4509, 5, 311.0, 15.20, 390.50, 15.71, 21.70
14, 0.62976, 0.00, 8.140, 0, 0.5380, 5.9490, 61.80, 4.7075, 4, 307.0, 21.00, 396.90, 8.26, 20.40
15, 0.63796, 0.00, 8.140, 0, 0.5380, 6.0960, 84.50, 4.4619, 4, 307.0, 21.00, 380.02, 10.26, 18.20
16, 0.62739, 0.00, 8.140, 0, 0.5380, 5.8340, 56.50, 4.4986, 4, 307.0, 21.00, 395.62, 8.47, 19.90
17, 1.05393, 0.00, 8.140, 0, 0.5380, 5.9350, 29.30, 4.4986, 4, 307.0, 21.00, 386.85, 6.58, 23.10
18, 0.78420, 0.00, 8.140, 0, 0.5380, 5.9900, 81.70, 4.2579, 4, 307.0, 21.00, 386.75, 14.67, 17.50
19, 0.80271, 0.00, 8.140, 0, 0.5380, 5.4560, 36.60, 3.7965, 4, 307.0, 21.00, 288.99, 11.69, 20.20
20, 0.72580, 0.00, 8.140, 0, 0.5380, 5.7270, 69.50, 3.7965, 4, 307.0, 21.00, 390.95, 11.28, 18.20
21, 1.25179, 0.00, 8.140, 0, 0.5380, 5.5700, 98.10, 3.7979, 4, 307.0, 21.00, 376.57, 21.02, 13.60
22, 0.85204, 0.00, 8.140, 0, 0.5380, 5.9650, 89.20, 4.0123, 4, 307.0, 21.00, 392.53, 13.83, 19.60
23, 1.23247, 0.00, 8.140, 0, 0.5380, 6.1420, 91.70, 3.9769, 4, 307.0, 21.00, 396.90, 18.72, 15.20
24, 0.98843, 0.00, 8.140, 0, 0.5380, 5.8130, 100.00, 4.0952, 4, 307.0, 21.00, 394.54, 19.88, 14.50
25, 0.75026, 0.00, 8.140, 0, 0.5380, 5.9240, 94.10, 4.3996, 4, 307.0, 21.00, 394.33, 16.30, 15.60
26, 0.84054, 0.00, 8.140, 0, 0.5380, 5.5990, 85.70, 4.4546, 4, 307.0, 21.00, 303.42, 16.51, 13.90
27, 0.67191, 0.00, 8.140, 0, 0.5380, 5.8130, 90.30, 4.6820, 4, 307.0, 21.00, 376.88, 14.81, 16.60
28, 0.95577, 0.00, 8.140, 0, 0.5380, 6.0470, 88.80, 4.4534, 4, 307.0, 21.00, 306.38, 17.28, 14.80
29, 0.77299, 0.00, 8.140, 0, 0.5380, 6.4950, 94.40, 4.4547, 4, 307.0, 21.00, 387.94, 12.80, 18.40
30, 1.00245, 0.00, 8.140, 0, 0.5380, 6.6740, 87.30, 4.2390, 4, 307.0, 21.00, 380.23, 11.98, 21.00
31, 1.13081, 0.00, 8.140, 0, 0.5380, 5.7130, 94.10, 4.2330, 4, 307.0, 21.00, 360.17, 22.60, 12.70
32, 1.35472, 0.00, 8.140, 0, 0.5380, 6.0720, 100.00, 4.1750, 4, 307.0, 21.00, 376.73, 13.04, 14.50
33, 1.38799, 0.00, 8.140, 0, 0.5380, 5.9500, 82.00, 3.9900, 4, 307.0, 21.00, 232.60, 27.71, 13.20
34, 1.15172, 0.00, 8.140, 0, 0.5380, 5.7010, 95.00, 3.7872, 4, 307.0, 21.00, 358.77, 18.35, 13.10
35, 1.61282, 0.00, 8.140, 0, 0.5380, 6.0960, 96.90, 3.7598, 4, 307.0, 21.00, 248.31, 20.34, 13.50
36, 0.06417, 0.00, 5.960, 0, 0.4990, 5.9330, 68.20, 3.3603, 5, 279.0, 19.20, 396.90, 9.68, 18.90
37, 0.09744, 0.00, 5.960, 0, 0.4990, 5.8410, 61.40, 3.3779, 5, 279.0, 19.20, 377.56, 11.41, 20.00
38, 0.08014, 0.00, 5.960, 0, 0.4990, 5.8500, 41.50, 3.9342, 5, 279.0, 19.20, 396.90, 8.77, 21.00
39, 0.17505, 0.00, 5.960, 0, 0.4990, 5.9660, 30.20, 3.8473, 5, 279.0, 19.20, 393.43, 10.13, 24.70
40, 0.02763, 75.00, 2.950, 0, 0.4280, 6.5950, 21.80, 5.4011, 3, 252.0, 18.30, 395.63, 4.32, 30.80
41, 0.03359, 75.00, 2.950, 0, 0.4280, 7.0240, 15.80, 5.4011, 3, 252.0, 18.30, 395.62, 1.98, 34.90
42, 0.12744, 0.00, 6.910, 0, 0.4480, 6.7700, 2.90, 5.7209, 3, 233.0, 17.90, 385.41, 4.84, 26.60
43, 0.14150, 0.00, 6.910, 0, 0.4480, 6.1690, 6.60, 5.7209, 3, 233.0, 17.90, 383.37, 5.81, 25.30
44, 0.15936, 0.00, 6.910, 0, 0.4480, 6.2110, 6.50, 5.7209, 3, 233.0, 17.90, 394.46, 7.44, 24.70
45, 0.12269, 0.00, 6.910, 0, 0.4480, 6.0690, 40.00, 5.7209, 3, 233.0, 17.90, 389.39, 9.55, 21.20
46, 0.17142, 0.00, 6.910, 0, 0.4480, 5.6820, 33.80, 5.1004, 3, 233.0, 17.90, 396.90, 10.21, 19.30
47, 0.18836, 0.00, 6.910, 0, 0.4480, 5.7860, 33.30, 5.1004, 3, 233.0, 17.90, 396.90, 14.15, 20.00
48, 0.22927, 0.00, 6.910, 0, 0.4480, 6.0300, 85.50, 5.6894, 3, 233.0, 17.90, 392.74, 18.80, 16.60
49, 0.25387, 0.00, 6.910, 0, 0.4480, 5.3990, 95.30, 5.8700, 3, 233.0, 17.90, 396.90, 30.81, 14.40
50, 0.21977, 0.00, 6.910, 0, 0.4480, 5.6020, 62.00, 6.0877, 3, 233.0, 17.90, 396.90, 16.20, 19.40
51, 0.08873, 21.00, 5.640, 0, 0.4390, 5.9630, 45.70, 6.8147, 4, 243.0, 16.80, 395.56, 13.45, 19.70
52, 0.04337, 21.00, 5.640, 0, 0.4390, 6.1150, 63.00, 6.8147, 4, 243.0, 16.80, 393.97, 9.43, 20.50
53, 0.05360, 21.00, 5.640, 0, 0.4390, 6.5110, 21.10, 6.8147, 4, 243.0, 16.80, 396.90, 5.28, 25.00
54, 0.04981, 21.00, 5.640, 0, 0.4390, 5.9980, 21.40, 6.8147, 4, 243.0, 16.80, 396.90, 8.43, 23.40
55, 0.01360, 75.00, 4.000, 0, 0.4100, 5.8880, 47.60, 7.3197, 3, 469.0, 21.10, 396.90, 14.80, 18.90
56, 0.01311, 90.00, 1.220, 0, 0.4030, 7.2490, 21.90, 8.6966, 5, 226.0, 17.90, 395.93, 4.81, 35.40
57, 0.02055, 85.00, 0.740, 0, 0.4100, 6.3830, 35.70, 9.1876, 2, 313.0, 17.30, 396.90, 5.77, 24.70
58, 0.01432, 100.00, 1.320, 0, 0.4110, 6.8160, 40.50, 8.3248, 5, 256.0, 15.10, 392.90, 3.95, 31.60
59, 0.15445, 25.00, 5.130, 0, 0.4530, 6.1450, 29.20, 7.8148, 8, 284.0, 19.70, 390.68, 6.86, 23.30
60, 0.10328, 25.00, 5.130, 0, 0.4530, 5.9270, 47.20, 6.9320, 8, 284.0, 19.70, 396.90, 9.22, 19.60
61, 0.14932, 25.00, 5.130, 0, 0.4530, 5.7410, 66.20, 7.2254, 8, 284.0, 19.70, 395.11, 13.15, 18.70
62, 0.17171, 25.00, 5.130, 0, 0.4530, 5.9660, 93.40, 6.8185, 8, 284.0, 19.70, 378.08, 14.44, 16.00
63, 0.11027, 25.00, 5.130, 0, 0.4530, 6.4560, 67.80, 7.2255, 8, 284.0, 19.70, 396.90, 6.73, 22.20
64, 0.12650, 25.00, 5.130, 0, 0.4530, 6.7620, 43.40, 7.9809, 8, 284.0, 19.70, 395.58, 9.50, 25.00
65, 0.01951, 17.50, 1.380, 0, 0.4161, 7.1040, 59.50, 9.2229, 3, 216.0, 18.60, 393.24, 8.05, 33.00
66, 0.03584, 80.00, 3.370, 0, 0.3980, 6.2900, 17.80, 6.6115, 4, 337.0, 16.10, 396.90, 4.67, 23.50
67, 0.04379, 80.00, 3.370, 0, 0.3980, 5.7870, 31.10, 6.6115, 4, 337.0, 16.10, 396.90, 10.24, 19.40
68, 0.05789, 12.50, 6.070, 0, 0.4090, 5.8780, 21.40, 6.4980, 4, 345.0, 18.90, 396.21, 8.10, 22.00
69, 0.13554, 12.50, 6.070, 0, 0.4090, 5.5940, 36.80, 6.4980, 4, 345.0, 18.90, 396.90, 13.09, 17.40
70, 0.12816, 12.50, 6.070, 0, 0.4090, 5.8850, 33.00, 6.4980, 4, 345.0, 18.90, 396.90, 8.79, 20.90
71, 0.08826, 0.00, 10.810, 0, 0.4130, 6.4170, 6.60, 5.2873, 4, 305.0, 19.20, 383.73, 6.72, 24.20
72, 0.15876, 0.00, 10.810, 0, 0.4130, 5.9610, 17.50, 5.2873, 4, 305.0, 19.20, 376.94, 9.88, 21.70
73, 0.09164, 0.00, 10.810, 0, 0.4130, 6.0650, 7.80, 5.2873, 4, 305.0, 19.20, 390.91, 5.52, 22.80
74, 0.19539, 0.00, 10.810, 0, 0.4130, 6.2450, 6.20, 5.2873, 4, 305.0, 19.20, 377.17, 7.54, 23.40
75, 0.07896, 0.00, 12.830, 0, 0.4370, 6.2730, 6.00, 4.2515, 5, 398.0, 18.70, 394.92, 6.78, 24.10
76, 0.09512, 0.00, 12.830, 0, 0.4370, 6.2860, 45.00, 4.5026, 5, 398.0, 18.70, 383.23, 8.94, 21.40
77, 0.10153, 0.00, 12.830, 0, 0.4370, 6.2790, 74.50, 4.0522, 5, 398.0, 18.70, 373.66, 11.97, 20.00
78, 0.08707, 0.00, 12.830, 0, 0.4370, 6.1400, 45.80, 4.0905, 5, 398.0, 18.70, 386.96, 10.27, 20.80
79, 0.05646, 0.00, 12.830, 0, 0.4370, 6.2320, 53.70, 5.0141, 5, 398.0, 18.70, 386.40, 12.34, 21.20
80, 0.08387, 0.00, 12.830, 0, 0.4370, 5.8740, 36.60, 4.5026, 5, 398.0, 18.70, 396.06, 9.10, 20.30
